Week 10 Assignment DATA607 - Sentiment Analysis
…
Part I - The Example

The following code is from Chapter 2 of Text Mining with R - A Tidy Approach, entitled Sentiment Analysis with Tidy Data. A full citation of the code can be found at the end of the code excerpt.

2.1 - The Sentiments Dataset

library(janeaustenr)
library(tidyverse)
library(stringr)
library(tidytext)

library(tidytext)
get_sentiments("afinn")

## # A tibble: 2,477 x 2
##    word       value
##    <chr>      <dbl>
##  1 abandon       -2
##  2 abandoned     -2
##  3 abandons      -2
##  4 abducted      -2
##  5 abduction     -2
##  6 abductions    -2
##  7 abhor         -3
##  8 abhorred      -3
##  9 abhorrent     -3
## 10 abhors        -3
## # ... with 2,467 more rows

get_sentiments("bing")

## # A tibble: 6,786 x 2
##    word        sentiment
##    <chr>       <chr>    
##  1 2-faces     negative 
##  2 abnormal    negative 
##  3 abolish     negative 
##  4 abominable  negative 
##  5 abominably  negative 
##  6 abominate   negative 
##  7 abomination negative 
##  8 abort       negative 
##  9 aborted     negative 
## 10 aborts      negative 
## # ... with 6,776 more rows

get_sentiments("nrc")

## # A tibble: 13,901 x 2
##    word        sentiment
##    <chr>       <chr>    
##  1 abacus      trust    
##  2 abandon     fear     
##  3 abandon     negative 
##  4 abandon     sadness  
##  5 abandoned   anger    
##  6 abandoned   fear     
##  7 abandoned   negative 
##  8 abandoned   sadness  
##  9 abandonment anger    
## 10 abandonment fear     
## # ... with 13,891 more rows

2.2 Sentiment Analaysis with Inner Join

tidy_books <- austen_books() %>%
  group_by(book) %>%
  mutate(linenumber = row_number(),
         chapter = cumsum(str_detect(text, regex("^chapter [\\divxlc]", 
                                                 ignore_case = TRUE)))) %>%
  ungroup() %>%
  unnest_tokens(word, text)

tidy_books

## # A tibble: 725,055 x 4
##    book                linenumber chapter word       
##    <fct>                    <int>   <int> <chr>      
##  1 Sense & Sensibility          1       0 sense      
##  2 Sense & Sensibility          1       0 and        
##  3 Sense & Sensibility          1       0 sensibility
##  4 Sense & Sensibility          3       0 by         
##  5 Sense & Sensibility          3       0 jane       
##  6 Sense & Sensibility          3       0 austen     
##  7 Sense & Sensibility          5       0 1811       
##  8 Sense & Sensibility         10       1 chapter    
##  9 Sense & Sensibility         10       1 1          
## 10 Sense & Sensibility         13       1 the        
## # ... with 725,045 more rows

nrc_joy <- get_sentiments("nrc") %>% 
  filter(sentiment == "joy")

tidy_books %>%
  filter(book == "Emma") %>%
  inner_join(nrc_joy) %>%
  count(word, sort = TRUE)

## Joining, by = "word"

## # A tibble: 303 x 2
##    word        n
##    <chr>   <int>
##  1 good      359
##  2 young     192
##  3 friend    166
##  4 hope      143
##  5 happy     125
##  6 love      117
##  7 deal       92
##  8 found      92
##  9 present    89
## 10 kind       82
## # ... with 293 more rows

library(tidyr)
jane_austen_sentiment <- tidy_books %>%
  inner_join(get_sentiments("bing")) %>%
  count(book, index = linenumber %/% 80, sentiment) %>%
  spread(sentiment, n, fill = 0) %>%
  mutate(sentiment = positive - negative)

## Joining, by = "word"

jane_austen_sentiment

## # A tibble: 920 x 5
##    book                index negative positive sentiment
##    <fct>               <dbl>    <dbl>    <dbl>     <dbl>
##  1 Sense & Sensibility     0       16       32        16
##  2 Sense & Sensibility     1       19       53        34
##  3 Sense & Sensibility     2       12       31        19
##  4 Sense & Sensibility     3       15       31        16
##  5 Sense & Sensibility     4       16       34        18
##  6 Sense & Sensibility     5       16       51        35
##  7 Sense & Sensibility     6       24       40        16
##  8 Sense & Sensibility     7       23       51        28
##  9 Sense & Sensibility     8       30       40        10
## 10 Sense & Sensibility     9       15       19         4
## # ... with 910 more rows
…
2.3 Comparing the three sentiment dictionaries

pride_prejudice <- tidy_books %>% 
  filter(book == "Pride & Prejudice")

pride_prejudice

## # A tibble: 122,204 x 4
##    book              linenumber chapter word     
##    <fct>                  <int>   <int> <chr>    
##  1 Pride & Prejudice          1       0 pride    
##  2 Pride & Prejudice          1       0 and      
##  3 Pride & Prejudice          1       0 prejudice
##  4 Pride & Prejudice          3       0 by       
##  5 Pride & Prejudice          3       0 jane     
##  6 Pride & Prejudice          3       0 austen   
##  7 Pride & Prejudice          7       1 chapter  
##  8 Pride & Prejudice          7       1 1        
##  9 Pride & Prejudice         10       1 it       
## 10 Pride & Prejudice         10       1 is       
## # ... with 122,194 more rows
…
2.4 Most Common Positive and Negative Words

bing_word_counts <- tidy_books %>%
  inner_join(get_sentiments("bing")) %>%
  count(word, sentiment, sort = TRUE) %>%
  ungroup()

## Joining, by = "word"

bing_word_counts

## # A tibble: 2,585 x 3
##    word     sentiment     n
##    <chr>    <chr>     <int>
##  1 miss     negative   1855
##  2 well     positive   1523
##  3 good     positive   1380
##  4 great    positive    981
##  5 like     positive    725
##  6 better   positive    639
##  7 enough   positive    613
##  8 happy    positive    534
##  9 love     positive    495
## 10 pleasure positive    462
## # ... with 2,575 more rows
…
Authors: Juilia Silge and David Robinson

Availability: https://www.tidytextmining.com/sentiment.html

Part 2 - with another corpus and lexicon

For part II of this project, chose to analyze text harry potter books using loughran lexicon

#devtools::install_github("bradleyboehmke/harrypotter") 
library(harrypotter)

get_sentiments("loughran")

## # A tibble: 4,150 x 2
##    word         sentiment
##    <chr>        <chr>    
##  1 abandon      negative 
##  2 abandoned    negative 
##  3 abandoning   negative 
##  4 abandonment  negative 
##  5 abandonments negative 
##  6 abandons     negative 
##  7 abdicated    negative 
##  8 abdicates    negative 
##  9 abdicating   negative 
## 10 abdication   negative 
## # ... with 4,140 more rows
…
  series <- rbind(series, temp)
}
# set factor to keep books in order of publication
series$book <- factor(series$book, levels = rev(titles))

# This is what the tokenizing looks like
series

## # A tibble: 105,275 x 3
##    book                chapter word   
##    <fct>                 <int> <chr>  
##  1 Prisoner_of_azkaban       1 owl    
##  2 Prisoner_of_azkaban       1 post   
##  3 Prisoner_of_azkaban       1 harry  
##  4 Prisoner_of_azkaban       1 potter 
##  5 Prisoner_of_azkaban       1 was    
##  6 Prisoner_of_azkaban       1 a      
##  7 Prisoner_of_azkaban       1 highly 
##  8 Prisoner_of_azkaban       1 unusual
##  9 Prisoner_of_azkaban       1 boy    
## 10 Prisoner_of_azkaban       1 in     
## # ... with 105,265 more rows
…
